{
    "!": {
        "43": 1,
        "79": 1,
        "127": 1,
        "237": 1,
        "362": 1
    },
    "\"maprimerénov'\"": {
        "409": 1
    },
    "\"micro": {
        "292": 1
    },
    "\"pierre": {
        "38": 1
    },
    "&": {
        "142": 2,
        "187": 1,
        "204": 1,
        "232": 1,
        "272": 1,
        "298": 1,
        "360": 1,
        "436": 1,
        "440": 1,
        "445": 1,
        "446": 1,
        "457": 1
    },
    "&#x25b7;": {
        "474": 1
    },
    "(cpam)": {
        "406": 1
    },
    "(cpf)": {
        "77": 1
    },
    "(crpc)": {
        "368": 1
    },
    "(démarche": {
        "415": 1
    },
    "(ebv):": {
        "70": 1
    },
    "(famille": {
        "158": 1
    },
    "(film)": {
        "491": 1
    },
    "(formulaire)": {
        "143": 1
    },
    "(fr)": {
        "99": 1,
        "157": 1,
        "163": 1,
        "217": 1
    },
    "(from": {
        "475": 1
    },
    "(irl)": {
        "214": 1
    },
    "(liqueur)": {
        "267": 1
    },
    "(logiciel)": {
        "44": 1
    },
    "(mythologie)": {
        "105": 1
    },
    "(odeurs)": {
        "8": 1
    },
    "(p19)": {
        "497": 1
    },
    "(personnage)": {
        "52": 1
    },
    "(société": {
        "338": 1
    },
    "(série": {
        "164": 1
    },
    "(vie)": {
        "76": 1
    },
    "(windows)": {
        "479": 1
    },
    "+18": {
        "384": 1
    },
    ",": {
        "92": 1
    },
    "-": {
        "10": 1,
        "34": 1,
        "40": 1,
        "45": 1,
        "48": 2,
        "51": 2,
        "55": 1,
        "58": 1,
        "74": 2,
        "83": 1,
        "87": 1,
        "88": 1,
        "92": 1,
        "95": 1,
        "99": 2,
        "101": 1,
        "106": 1,
        "107": 1,
        "113": 2,
        "116": 1,
        "117": 1,
        "119": 1,
        "123": 1,
        "128": 1,
        "130": 1,
        "132": 1,
        "139": 1,
        "151": 1,
        "156": 1,
        "157": 1,
        "173": 1,
        "176": 1,
        "183": 1,
        "187": 1,
        "189": 1,
        "198": 1,
        "204": 2,
        "209": 2,
        "211": 2,
        "212": 1,
        "217": 1,
        "231": 1,
        "234": 1,
        "235": 1,
        "241": 1,
        "253": 2,
        "264": 1,
        "265": 2,
        "266": 1,
        "269": 1,
        "270": 1,
        "291": 1,
        "301": 1,
        "305": 1,
        "306": 1,
        "307": 1,
        "328": 2,
        "338": 2,
        "343": 1,
        "344": 2,
        "345": 1,
        "346": 1,
        "357": 1,
        "361": 3,
        "362": 1,
        "363": 1,
        "364": 1,
        "366": 1,
        "367": 1,
        "372": 1,
        "383": 1,
        "384": 1,
        "386": 1,
        "387": 1,
        "406": 4,
        "413": 1,
        "416": 2,
        "422": 1,
        "428": 2,
        "432": 1,
        "435": 1,
        "436": 1,
        "442": 1,
        "445": 1,
        "447": 1,
        "452": 1,
        "458": 1,
        "462": 1,
        "468": 1,
        "469": 1,
        "472": 1,
        "473": 1,
        "475": 2,
        "477": 1,
        "479": 1,
        "482": 1,
        "493": 2,
        "497": 4
    },
    "--": {
        "306": 1
    },
    "...": {
        "135": 1
    },
    "07": {
        "314": 1
    },
    "1": {
        "287": 1
    },
    "10": {
        "239": 1
    },
    "10e": {
        "328": 1
    },
    "10€": {
        "102": 1
    },
    "11:": {
        "286": 1
    },
    "12.0": {
        "323": 1
    },
    "16": {
        "190": 1
    },
    "17track": {
        "229": 1
    },
    "1848": {
        "440": 1
    },
    "1948": {
        "452": 1
    },
    "1977,": {
        "152": 1
    },
    "1jour1vin.com": {
        "336": 1
    },
    "2": {
        "158": 1
    },
    "2017": {
        "242": 1
    },
    "2020": {
        "314": 1
    },
    "2021": {
        "38": 1,
        "211": 1
    },
    "2022": {
        "237": 1,
        "264": 1,
        "300": 1,
        "384": 1
    },
    "2023": {
        "190": 1,
        "272": 1,
        "289": 1,
        "445": 1
    },
    "22": {
        "289": 1
    },
    "29": {
        "462": 1
    },
    "4": {
        "273": 1
    },
    "48": {
        "328": 1
    },
    "4x4": {
        "366": 1
    },
    "5": {
        "150": 1
    },
    "5g": {
        "403": 1
    },
    "64990": {
        "48": 1
    },
    "7": {
        "70": 1,
        "106": 1
    },
    "76": {
        "406": 1
    },
    "78140": {
        "253": 1
    },
    "9001": {
        "234": 1
    },
    ":": {
        "8": 1,
        "33": 1,
        "38": 1,
        "41": 1,
        "77": 1,
        "79": 1,
        "87": 1,
        "135": 1,
        "150": 1,
        "153": 1,
        "166": 1,
        "199": 1,
        "211": 1,
        "223": 1,
        "224": 1,
        "237": 1,
        "241": 1,
        "253": 1,
        "263": 1,
        "264": 1,
        "287": 1,
        "289": 1,
        "290": 1,
        "291": 1,
        "313": 1,
        "321": 1,
        "367": 1,
        "396": 1,
        "407": 1,
        "408": 1,
        "442": 1,
        "451": 1,
        "454": 1,
        "462": 1
    },
    "::": {
        "458": 1
    },
    "?": {
        "189": 1,
        "190": 1,
        "202": 1,
        "239": 1,
        "272": 1,
        "422": 1,
        "465": 1
    },
    "a": {
        "466": 1,
        "475": 1
    },
    "accessoires": {
        "99": 1
    },
    "accounts": {
        "132": 1
    },
    "accueil": {
        "55": 1,
        "63": 1,
        "83": 1,
        "153": 1,
        "270": 1,
        "284": 1,
        "287": 1,
        "309": 1,
        "343": 1,
        "363": 1,
        "429": 1
    },
    "accueillez": {
        "37": 1
    },
    "achat": {
        "336": 1
    },
    "achats": {
        "455": 1
    },
    "acoustic": {
        "361": 1
    },
    "activités": {
        "365": 1,
        "396": 1
    },
    "actu": {
        "211": 1
    },
    "actualités": {
        "77": 1,
        "223": 1
    },
    "adit": {
        "227": 1
    },
    "adolphe": {
        "418": 1
    },
    "adonis": {
        "105": 1
    },
    "adoptez": {
        "163": 1
    },
    "adresse,": {
        "135": 1
    },
    "adult": {
        "384": 1
    },
    "affordable": {
        "435": 1
    },
    "agence": {
        "17": 1,
        "293": 1
    },
    "agent": {
        "221": 1
    },
    "agile": {
        "404": 1
    },
    "agricole": {
        "117": 1
    },
    "ahlakid.com": {
        "384": 1
    },
    "air": {
        "410": 1
    },
    "aixois": {
        "458": 1
    },
    "albums": {
        "225": 1
    },
    "alert": {
        "34": 1
    },
    "algoréa": {
        "109": 1
    },
    "alibaba": {
        "92": 1
    },
    "aljt-": {
        "298": 1
    },
    "all": {
        "349": 1
    },
    "allocations": {
        "158": 1
    },
    "alma": {
        "407": 1
    },
    "alternatif": {
        "23": 1
    },
    "alternatives": {
        "23": 1
    },
    "alu": {
        "423": 1
    },
    "amazon.fr": {
        "237": 1
    },
    "amis": {
        "2": 1
    },
    "analyse": {
        "451": 1
    },
    "and": {
        "92": 1,
        "435": 1,
        "441": 2
    },
    "anefa": {
        "117": 2
    },
    "animaux": {
        "491": 1
    },
    "anneaux": {
        "27": 1
    },
    "annonces": {
        "95": 1
    },
    "annuaire": {
        "406": 1
    },
    "anormaux": {
        "378": 1
    },
    "anti": {
        "300": 1
    },
    "anticipa": {
        "227": 1
    },
    "api": {
        "497": 1
    },
    "apodictique": {
        "224": 2
    },
    "appeler": {
        "493": 2
    },
    "appels": {
        "191": 1
    },
    "apple": {
        "99": 1,
        "157": 1,
        "217": 1
    },
    "applications": {
        "382": 1
    },
    "apprendre": {
        "344": 1
    },
    "archive:": {
        "26": 1
    },
    "arena": {
        "219": 1
    },
    "ariégeoise": {
        "211": 1
    },
    "artisan": {
        "113": 1
    },
    "asiennes": {
        "37": 1
    },
    "assistance": {
        "36": 1,
        "217": 1,
        "291": 1
    },
    "assistante": {
        "417": 1
    },
    "assurance-vie": {
        "192": 1
    },
    "astrologiques": {
        "414": 1
    },
    "astronomie": {
        "107": 1
    },
    "astrophysique": {
        "107": 1
    },
    "au": {
        "79": 1,
        "143": 1,
        "198": 1,
        "289": 1,
        "408": 2,
        "417": 1
    },
    "audio": {
        "36": 1,
        "176": 1
    },
    "augmenté": {
        "280": 1
    },
    "auguste": {
        "481": 1
    },
    "aujourd'hui": {
        "142": 1
    },
    "automatique": {
        "191": 1
    },
    "autoroute": {
        "338": 1
    },
    "autres": {
        "396": 1
    },
    "aux": {
        "191": 1,
        "407": 1,
        "447": 1,
        "494": 1
    },
    "avant": {
        "250": 1
    },
    "avec": {
        "88": 1,
        "344": 1,
        "442": 1,
        "465": 1,
        "494": 1
    },
    "averroès": {
        "377": 1
    },
    "aveyron": {
        "98": 1
    },
    "avez": {
        "217": 1
    },
    "avis": {
        "272": 1
    },
    "ayaline": {
        "209": 1
    },
    "baez": {
        "255": 1
    },
    "bain": {
        "253": 1
    },
    "balnéo": {
        "398": 1
    },
    "banque,": {
        "192": 1
    },
    "banques": {
        "445": 1
    },
    "barbe": {
        "391": 1
    },
    "baudelaire": {
        "290": 1
    },
    "bayonne": {
        "48": 1
    },
    "bazin": {
        "81": 1
    },
    "bbc": {
        "40": 1,
        "204": 1
    },
    "bc": {
        "304": 1
    },
    "belles": {
        "413": 1
    },
    "bellevue": {
        "463": 1
    },
    "bien-être": {
        "23": 1
    },
    "bienvenue": {
        "21": 1,
        "51": 1
    },
    "big": {
        "446": 1
    },
    "bijoutier": {
        "113": 1
    },
    "bikini": {
        "292": 1
    },
    "binairo": {
        "345": 1
    },
    "biologie": {
        "63": 1
    },
    "biome": {
        "318": 1
    },
    "biométrie": {
        "63": 1
    },
    "biterrois": {
        "21": 2
    },
    "black": {
        "237": 1
    },
    "blanches": {
        "403": 1
    },
    "bois": {
        "423": 1
    },
    "bois-pellets": {
        "307": 1
    },
    "bon": {
        "452": 1
    },
    "bonanza": {
        "300": 1
    },
    "bonnel": {
        "307": 1
    },
    "bord": {
        "463": 1
    },
    "bordeaux": {
        "357": 1
    },
    "borderouge": {
        "84": 1
    },
    "boris": {
        "347": 1
    },
    "born/live": {
        "475": 1
    },
    "bornand": {
        "343": 1
    },
    "boson": {
        "97": 1
    },
    "boulanger": {
        "453": 1
    },
    "bourg-argental,": {
        "175": 1,
        "254": 1
    },
    "bourse": {
        "94": 1,
        "192": 1,
        "465": 1
    },
    "boîte": {
        "494": 1
    },
    "bradley": {
        "475": 1
    },
    "bricks.co": {
        "102": 1
    },
    "brico": {
        "423": 1
    },
    "bridge": {
        "304": 1
    },
    "bryton": {
        "180": 1
    },
    "bréhat": {
        "195": 1
    },
    "btp": {
        "416": 1
    },
    "by": {
        "33": 1,
        "177": 1
    },
    "bymycar": {
        "488": 1
    },
    "bâtiment_e-bat": {
        "364": 1
    },
    "bébé": {
        "71": 1
    },
    "bébé,": {
        "71": 1
    },
    "bénéficiez": {
        "376": 1
    },
    "c'est": {
        "127": 1,
        "237": 1
    },
    "c,": {
        "362": 1
    },
    "c.h.v": {
        "212": 1
    },
    "cabasse": {
        "361": 1
    },
    "cadastrale": {
        "422": 1
    },
    "cadre": {
        "2": 1
    },
    "caen": {
        "451": 1
    },
    "cafés": {
        "432": 2
    },
    "caisse": {
        "80": 1,
        "173": 1,
        "406": 1
    },
    "caméra": {
        "272": 1
    },
    "canal": {
        "33": 1
    },
    "caniches": {
        "424": 1
    },
    "cap": {
        "463": 1
    },
    "capilano": {
        "304": 1
    },
    "capitaine": {
        "205": 1
    },
    "capsules": {
        "432": 1
    },
    "capture": {
        "150": 1
    },
    "caraïbes": {
        "461": 1
    },
    "carbonate": {
        "358": 1
    },
    "carrelage": {
        "419": 1
    },
    "carrière": {
        "473": 1
    },
    "carte": {
        "297": 1
    },
    "cartes": {
        "442": 1
    },
    "carton": {
        "129": 1
    },
    "cas": {
        "415": 1
    },
    "catholicisme": {
        "499": 1
    },
    "catholique": {
        "379": 1
    },
    "ce": {
        "74": 2
    },
    "celle": {
        "485": 1
    },
    "center": {
        "361": 1
    },
    "centre": {
        "107": 1
    },
    "cerballiance": {
        "482": 1
    },
    "cette": {
        "163": 1
    },
    "cfa": {
        "416": 1
    },
    "chabert": {
        "440": 1
    },
    "chaleur": {
        "357": 1
    },
    "chambre": {
        "71": 1
    },
    "champagne.": {
        "365": 1
    },
    "chanel": {
        "213": 1
    },
    "changement": {
        "415": 1
    },
    "charge": {
        "189": 1
    },
    "charogne": {
        "290": 1
    },
    "chartreuse": {
        "130": 1,
        "267": 1
    },
    "chasse": {
        "272": 1
    },
    "chasseur": {
        "367": 2
    },
    "chat": {
        "91": 1,
        "372": 1
    },
    "chateaubriand": {
        "340": 1
    },
    "chaudières": {
        "376": 1
    },
    "chauffage": {
        "307": 1
    },
    "chauffage,": {
        "231": 1
    },
    "chauffe-eau": {
        "231": 1
    },
    "cheat": {
        "187": 1
    },
    "cherbourg": {
        "444": 1
    },
    "chez": {
        "37": 1,
        "321": 1
    },
    "chicago": {
        "498": 1
    },
    "choc": {
        "362": 1
    },
    "chocolatier": {
        "128": 1
    },
    "chocolats": {
        "128": 1
    },
    "choisir": {
        "45": 2
    },
    "choux": {
        "87": 2
    },
    "chéran": {
        "90": 1
    },
    "cicatridine": {
        "263": 1
    },
    "cicatrisante": {
        "263": 1
    },
    "cinema": {
        "84": 1
    },
    "cinquante": {
        "468": 1
    },
    "ciné": {
        "175": 2,
        "254": 2
    },
    "ciné-club": {
        "451": 1
    },
    "cinéma": {
        "175": 1,
        "254": 1,
        "361": 1
    },
    "cinéma.": {
        "451": 1
    },
    "cinémas": {
        "458": 1
    },
    "cinémas,": {
        "458": 1
    },
    "circoncision": {
        "412": 1
    },
    "circuits": {
        "4": 1
    },
    "citadins": {
        "407": 1
    },
    "citation": {
        "166": 1
    },
    "citations": {
        "166": 1
    },
    "civil": {
        "415": 1
    },
    "claire": {
        "185": 1
    },
    "classique": {
        "391": 1
    },
    "clermont-ferrand": {
        "113": 1
    },
    "clichés": {
        "290": 1
    },
    "client:": {
        "232": 1
    },
    "climatisation": {
        "357": 1
    },
    "cloud": {
        "485": 1
    },
    "club": {
        "90": 1,
        "313": 1
    },
    "clubble": {
        "305": 1
    },
    "clubble,": {
        "305": 1
    },
    "coco": {
        "213": 1
    },
    "code": {
        "217": 1,
        "264": 2,
        "337": 1,
        "441": 1,
        "453": 1
    },
    "cognac": {
        "60": 1
    },
    "cognacs,": {
        "365": 1
    },
    "cointreau": {
        "365": 2
    },
    "colette": {
        "178": 1
    },
    "colis": {
        "229": 1
    },
    "collège": {
        "378": 1,
        "485": 1
    },
    "comics": {
        "43": 2
    },
    "comment": {
        "70": 1,
        "190": 1,
        "248": 1,
        "422": 1
    },
    "commercial": {
        "497": 1
    },
    "comparatif": {
        "272": 1,
        "445": 1
    },
    "comparution": {
        "368": 1
    },
    "composition": {
        "240": 1
    },
    "compte": {
        "77": 1,
        "314": 1
    },
    "compétitions": {
        "447": 1
    },
    "concessionnaire": {
        "488": 1
    },
    "concours": {
        "109": 1
    },
    "condoléances": {
        "442": 2
    },
    "conflit,": {
        "426": 1
    },
    "confort": {
        "231": 1
    },
    "congo": {
        "455": 1
    },
    "congé": {
        "221": 1
    },
    "conjugaison": {
        "45": 1,
        "156": 1,
        "265": 1,
        "493": 1
    },
    "conjuguer": {
        "265": 1,
        "493": 1
    },
    "connaître": {
        "422": 1
    },
    "connectés": {
        "239": 1
    },
    "connexions": {
        "360": 1
    },
    "conseil": {
        "314": 1
    },
    "conseils,": {
        "77": 1
    },
    "conservative": {
        "159": 1
    },
    "consommation": {
        "232": 1
    },
    "constitution": {
        "152": 1
    },
    "contacter": {
        "124": 1,
        "135": 1
    },
    "contemporain": {
        "469": 1
    },
    "contenuti": {
        "34": 1
    },
    "contractuel": {
        "221": 1
    },
    "contrat": {
        "199": 1,
        "417": 1
    },
    "contrat,": {
        "232": 1
    },
    "contre": {
        "263": 1
    },
    "conversion": {
        "376": 1
    },
    "coon": {
        "372": 2
    },
    "cooper": {
        "475": 1
    },
    "copies": {
        "250": 1
    },
    "coq": {
        "408": 2
    },
    "coques": {
        "99": 1
    },
    "cornouailles": {
        "302": 1
    },
    "cornwell": {
        "275": 1
    },
    "coronavirus": {
        "82": 1,
        "289": 1
    },
    "couchant": {
        "142": 1
    },
    "couche": {
        "202": 1
    },
    "coucher": {
        "142": 1
    },
    "counties": {
        "325": 1
    },
    "cours": {
        "344": 1
    },
    "courtage": {
        "94": 1
    },
    "courtier": {
        "465": 1
    },
    "courts": {
        "4": 1
    },
    "covid": {
        "289": 1
    },
    "cpam": {
        "135": 1
    },
    "crfpa": {
        "38": 1
    },
    "cristal": {
        "3": 1
    },
    "critique": {
        "451": 1
    },
    "critiques": {
        "43": 1
    },
    "cruz": {
        "419": 1
    },
    "crémier": {
        "452": 1
    },
    "cuda": {
        "323": 1
    },
    "cuisine": {
        "253": 1
    },
    "culpabilité": {
        "368": 1
    },
    "culture": {
        "11": 1
    },
    "customer": {
        "497": 1
    },
    "cyril": {
        "151": 2
    },
    "célèbres": {
        "166": 1
    },
    "d": {
        "362": 1
    },
    "d'admissibilité": {
        "38": 1
    },
    "d'agde": {
        "463": 1
    },
    "d'aigret": {
        "424": 1
    },
    "d'analyses": {
        "482": 1
    },
    "d'andilly": {
        "123": 2
    },
    "d'anéantir,": {
        "250": 1
    },
    "d'art": {
        "451": 1,
        "469": 1
    },
    "d'assurance": {
        "406": 1
    },
    "d'assurance-vie": {
        "199": 1
    },
    "d'emploi": {
        "161": 1
    },
    "d'epstein–barr": {
        "70": 1
    },
    "d'essai.": {
        "451": 1
    },
    "d'identité": {
        "297": 1
    },
    "d'impôts": {
        "242": 1
    },
    "d'information": {
        "23": 1
    },
    "d'investissement": {
        "102": 1
    },
    "d'occasion,": {
        "366": 1
    },
    "d'offres": {
        "191": 1
    },
    "d'opale": {
        "313": 1
    },
    "d'organes": {
        "143": 1
    },
    "d'un": {
        "67": 1,
        "221": 1,
        "297": 1,
        "415": 1
    },
    "d'une": {
        "139": 1,
        "417": 1,
        "422": 1
    },
    "d'usage": {
        "454": 1
    },
    "d'état": {
        "415": 1
    },
    "d'études": {
        "38": 1
    },
    "d'été": {
        "175": 1,
        "254": 1
    },
    "dailyfreeiptv": {
        "384": 1
    },
    "dailymotion": {
        "468": 1
    },
    "damien": {
        "113": 1
    },
    "dans": {
        "462": 1
    },
    "dates": {
        "387": 1
    },
    "david": {
        "28": 1
    },
    "dc": {
        "497": 1
    },
    "de": {
        "2": 1,
        "3": 1,
        "8": 1,
        "10": 1,
        "14": 1,
        "21": 1,
        "23": 1,
        "29": 1,
        "33": 1,
        "36": 2,
        "41": 1,
        "63": 1,
        "71": 2,
        "74": 1,
        "77": 2,
        "79": 2,
        "83": 1,
        "87": 1,
        "88": 2,
        "97": 1,
        "101": 1,
        "107": 2,
        "112": 1,
        "120": 1,
        "128": 2,
        "130": 2,
        "135": 1,
        "139": 1,
        "143": 1,
        "151": 2,
        "153": 1,
        "158": 1,
        "168": 1,
        "175": 1,
        "190": 1,
        "195": 1,
        "214": 1,
        "217": 1,
        "221": 2,
        "224": 1,
        "229": 1,
        "234": 1,
        "241": 5,
        "253": 1,
        "254": 1,
        "264": 1,
        "272": 1,
        "273": 1,
        "287": 1,
        "289": 1,
        "290": 1,
        "295": 2,
        "297": 1,
        "305": 1,
        "306": 1,
        "313": 1,
        "321": 1,
        "322": 1,
        "338": 1,
        "340": 1,
        "342": 1,
        "344": 1,
        "358": 1,
        "362": 1,
        "363": 1,
        "365": 4,
        "367": 1,
        "368": 1,
        "372": 1,
        "376": 1,
        "378": 1,
        "382": 1,
        "387": 1,
        "388": 1,
        "398": 1,
        "406": 2,
        "408": 1,
        "410": 1,
        "415": 1,
        "416": 1,
        "423": 2,
        "424": 1,
        "426": 1,
        "428": 1,
        "437": 2,
        "442": 1,
        "446": 1,
        "450": 1,
        "451": 1,
        "454": 2,
        "456": 1,
        "458": 1,
        "463": 1,
        "466": 1,
        "469": 1,
        "478": 1
    },
    "deepwater": {
        "149": 1
    },
    "defender": {
        "479": 1
    },
    "dell": {
        "455": 1
    },
    "demande": {
        "415": 1
    },
    "depuis": {
        "58": 1,
        "440": 1,
        "452": 1
    },
    "derniers": {
        "403": 1
    },
    "dernières": {
        "223": 1
    },
    "des": {
        "2": 1,
        "15": 1,
        "23": 1,
        "27": 1,
        "37": 1,
        "79": 1,
        "80": 2,
        "143": 1,
        "185": 2,
        "211": 1,
        "214": 1,
        "250": 1,
        "273": 2,
        "281": 1,
        "290": 1,
        "295": 1,
        "314": 1,
        "360": 1,
        "376": 1,
        "378": 1,
        "382": 1,
        "414": 1,
        "451": 1,
        "461": 1
    },
    "desjardins": {
        "94": 1
    },
    "dessertes": {
        "119": 1
    },
    "deux": {
        "387": 1
    },
    "developer": {
        "323": 1
    },
    "developers": {
        "441": 1
    },
    "département": {
        "462": 1
    },
    "di": {
        "34": 1
    },
    "diagnostics": {
        "35": 1
    },
    "dictionnaire": {
        "122": 1
    },
    "dietrich": {
        "428": 1
    },
    "digithèque": {
        "152": 1
    },
    "dijon": {
        "364": 2
    },
    "direct,": {
        "32": 1
    },
    "direction": {
        "80": 1
    },
    "discord": {
        "44": 1
    },
    "disney": {
        "145": 1,
        "349": 1
    },
    "disney.com": {
        "349": 1
    },
    "disparaître": {
        "156": 2
    },
    "dispenza": {
        "341": 2
    },
    "disponibles": {
        "250": 1
    },
    "doctissimo": {
        "87": 1,
        "241": 1,
        "367": 1
    },
    "dogna": {
        "281": 1
    },
    "domaine": {
        "120": 1,
        "313": 1
    },
    "dons": {
        "143": 1
    },
    "dorade": {
        "241": 2
    },
    "dosettes": {
        "432": 1
    },
    "dossiers,": {
        "43": 1
    },
    "downloadhelper": {
        "163": 1
    },
    "downloads": {
        "323": 1
    },
    "doxa": {
        "134": 1
    },
    "dr": {
        "341": 2,
        "392": 1
    },
    "dr.": {
        "392": 1
    },
    "droits": {
        "185": 2
    },
    "drôme": {
        "120": 1
    },
    "du": {
        "2": 1,
        "21": 2,
        "45": 1,
        "82": 1,
        "90": 1,
        "142": 2,
        "156": 1,
        "173": 1,
        "175": 1,
        "205": 1,
        "240": 1,
        "254": 1,
        "309": 1,
        "314": 2,
        "328": 2,
        "338": 3,
        "364": 1,
        "413": 1,
        "414": 1,
        "424": 1,
        "437": 1,
        "451": 1,
        "454": 1,
        "455": 1,
        "456": 1
    },
    "durablement": {
        "452": 1
    },
    "dutronc": {
        "438": 1
    },
    "dès": {
        "102": 1,
        "268": 1
    },
    "débarrasser": {
        "273": 1
    },
    "décision": {
        "67": 1
    },
    "déclaration": {
        "326": 1
    },
    "déclare": {
        "326": 1
    },
    "décodeur": {
        "161": 1
    },
    "décoration": {
        "48": 1
    },
    "découvrez": {
        "456": 1
    },
    "décrit": {
        "414": 1
    },
    "dédiée": {
        "407": 1
    },
    "défenseur": {
        "185": 1
    },
    "défenseure": {
        "185": 1
    },
    "définition": {
        "122": 1,
        "224": 1
    },
    "défiscalisation": {
        "190": 1
    },
    "défiscaliser": {
        "190": 1
    },
    "délégation": {
        "342": 1
    },
    "démocratique": {
        "455": 1
    },
    "départementales": {
        "211": 1
    },
    "dépôts": {
        "80": 1
    },
    "désormais": {
        "450": 1
    },
    "détournement": {
        "290": 1
    },
    "détérioration": {
        "415": 1
    },
    "d’accueil": {
        "176": 1
    },
    "d’accès": {
        "217": 1
    },
    "d’écran": {
        "150": 1
    },
    "e": {
        "34": 1
    },
    "e-técély": {
        "293": 1
    },
    "easy": {
        "226": 1
    },
    "eau": {
        "437": 1
    },
    "echos": {
        "82": 1
    },
    "editor": {
        "441": 1
    },
    "electroménager": {
        "428": 1
    },
    "elevage": {
        "424": 1
    },
    "eltsine": {
        "347": 1
    },
    "eluard": {
        "183": 2
    },
    "emmaüs": {
        "383": 2
    },
    "emoji": {
        "15": 1
    },
    "emploi": {
        "117": 1
    },
    "en": {
        "4": 1,
        "32": 1,
        "76": 1,
        "94": 2,
        "107": 1,
        "129": 1,
        "190": 1,
        "229": 1,
        "242": 1,
        "289": 1,
        "293": 1,
        "298": 1,
        "336": 1,
        "344": 1,
        "415": 3,
        "423": 1,
        "432": 1,
        "444": 1,
        "445": 1,
        "447": 1,
        "457": 1,
        "465": 2
    },
    "encanto": {
        "145": 1
    },
    "encyclopédie,": {
        "43": 1
    },
    "enfant": {
        "39": 1,
        "67": 1,
        "189": 1,
        "321": 1
    },
    "enfants": {
        "10": 1,
        "158": 1
    },
    "engage-sports.com": {
        "447": 1
    },
    "enseignants": {
        "378": 1
    },
    "enseignt": {
        "472": 1
    },
    "ent": {
        "29": 1,
        "318": 1
    },
    "entre": {
        "95": 1,
        "387": 1
    },
    "entreprise": {
        "76": 1
    },
    "environnement": {
        "287": 1,
        "357": 1
    },
    "envoyer": {
        "265": 2
    },
    "erdé": {
        "390": 1
    },
    "es": {
        "232": 1
    },
    "escoffier": {
        "481": 1
    },
    "esf": {
        "343": 1,
        "396": 1
    },
    "espace": {
        "232": 1,
        "398": 1
    },
    "espn": {
        "436": 1
    },
    "essentielb,": {
        "161": 2
    },
    "est": {
        "272": 1,
        "365": 1,
        "426": 1,
        "450": 1
    },
    "est-il?": {
        "478": 1
    },
    "et": {
        "10": 2,
        "15": 1,
        "32": 1,
        "36": 1,
        "48": 1,
        "58": 1,
        "63": 1,
        "71": 1,
        "77": 1,
        "84": 1,
        "99": 1,
        "107": 1,
        "117": 1,
        "119": 1,
        "128": 1,
        "129": 1,
        "131": 1,
        "166": 1,
        "192": 1,
        "202": 1,
        "211": 1,
        "223": 1,
        "225": 1,
        "231": 1,
        "240": 1,
        "253": 1,
        "263": 1,
        "273": 1,
        "281": 1,
        "326": 2,
        "357": 1,
        "362": 1,
        "365": 1,
        "366": 1,
        "391": 1,
        "396": 1,
        "403": 1,
        "423": 1,
        "432": 1,
        "437": 1,
        "442": 1,
        "444": 1,
        "447": 1,
        "451": 2,
        "458": 1,
        "466": 1,
        "469": 1,
        "472": 1
    },
    "etoile": {
        "416": 1
    },
    "ets": {
        "307": 1
    },
    "etudes": {
        "364": 1
    },
    "eukaryota": {
        "470": 1
    },
    "europ": {
        "357": 1
    },
    "européen": {
        "309": 1
    },
    "extension": {
        "163": 1
    },
    "fabcaro": {
        "147": 1
    },
    "facebook": {
        "31": 1
    },
    "facture": {
        "82": 1
    },
    "faire": {
        "150": 1
    },
    "faisan": {
        "367": 2
    },
    "familiales": {
        "158": 1
    },
    "fandom": {
        "216": 1,
        "218": 1,
        "225": 1,
        "277": 1
    },
    "fantastiques": {
        "491": 1
    },
    "fantominus": {
        "381": 1
    },
    "faubourg": {
        "328": 1
    },
    "felicità": {
        "446": 1
    },
    "femme": {
        "454": 1
    },
    "femmes": {
        "474": 1
    },
    "fenty:": {
        "177": 1
    },
    "fenêtre": {
        "423": 1
    },
    "fenêtre,": {
        "423": 1
    },
    "fiat": {
        "296": 1
    },
    "fibre,": {
        "33": 1
    },
    "fil": {
        "211": 1
    },
    "file": {
        "226": 1
    },
    "filets": {
        "241": 2
    },
    "filing": {
        "226": 1
    },
    "films": {
        "451": 1
    },
    "films,": {
        "458": 1
    },
    "fin": {
        "417": 1
    },
    "find": {
        "266": 1
    },
    "finistère": {
        "462": 1
    },
    "finistère": {
        "462": 1
    },
    "firefox": {
        "36": 2,
        "163": 1
    },
    "fiscalité": {
        "326": 1
    },
    "fonction": {
        "221": 1
    },
    "fonctionnement": {
        "77": 1,
        "199": 1
    },
    "fondation": {
        "55": 2
    },
    "fondue": {
        "241": 2
    },
    "fontaine": {
        "488": 1
    },
    "fontaine,": {
        "488": 2
    },
    "food": {
        "446": 1
    },
    "football": {
        "436": 1
    },
    "for": {
        "349": 1,
        "404": 1,
        "441": 1
    },
    "forgotten": {
        "216": 1
    },
    "formation": {
        "77": 2,
        "117": 1
    },
    "formations": {
        "416": 1
    },
    "foundation": {
        "11": 1
    },
    "fournée": {
        "127": 1
    },
    "foyer": {
        "175": 1,
        "254": 1
    },
    "foyer,": {
        "175": 1,
        "254": 1
    },
    "fr": {
        "474": 1
    },
    "france": {
        "141": 1,
        "350": 1,
        "428": 1,
        "457": 1
    },
    "français": {
        "365": 1
    },
    "française": {
        "41": 1,
        "338": 1
    },
    "françois": {
        "81": 1,
        "168": 1
    },
    "françois-rené": {
        "340": 1
    },
    "fraternité": {
        "379": 1
    },
    "free": {
        "91": 1,
        "404": 1
    },
    "freebox": {
        "33": 1
    },
    "fregis": {
        "212": 2
    },
    "fresh": {
        "435": 1
    },
    "friday": {
        "237": 1
    },
    "friends": {
        "187": 1
    },
    "from": {
        "475": 1
    },
    "fromager": {
        "452": 1
    },
    "fréjus": {
        "338": 1
    },
    "fréjus)": {
        "338": 1
    },
    "frêne": {
        "324": 1
    },
    "furet": {
        "212": 1
    },
    "furnishing": {
        "435": 1
    },
    "furniture": {
        "435": 1
    },
    "fuyons": {
        "403": 1
    },
    "gacor": {
        "300": 1
    },
    "gaga,": {
        "475": 1
    },
    "game": {
        "345": 1
    },
    "gamme": {
        "456": 1
    },
    "garage": {
        "4": 1
    },
    "gares": {
        "360": 1
    },
    "gault&millau": {
        "355": 1
    },
    "gay": {
        "91": 1
    },
    "gazel": {
        "113": 1
    },
    "gazette": {
        "211": 1
    },
    "general": {
        "472": 1
    },
    "gestion": {
        "232": 1,
        "234": 1
    },
    "glaucome.net": {
        "315": 1
    },
    "goatlings": {
        "218": 1
    },
    "golf": {
        "363": 1
    },
    "google": {
        "34": 1,
        "132": 1,
        "382": 1,
        "393": 1,
        "489": 1
    },
    "gouvernement": {
        "240": 2
    },
    "gouvernement.fr": {
        "124": 1,
        "240": 1,
        "314": 1,
        "376": 1
    },
    "grains,": {
        "432": 1
    },
    "grand": {
        "123": 2,
        "173": 1,
        "343": 1
    },
    "grande": {
        "41": 1,
        "363": 1
    },
    "grandir": {
        "10": 1
    },
    "gratuit": {
        "242": 1,
        "264": 1
    },
    "gratuites": {
        "95": 1
    },
    "grignan,": {
        "120": 1
    },
    "groupe": {
        "51": 1,
        "305": 1,
        "365": 1
    },
    "grown": {
        "407": 1
    },
    "gruissan": {
        "398": 1
    },
    "guillot": {
        "440": 1
    },
    "guitare": {
        "344": 2
    },
    "guitares": {
        "41": 1
    },
    "guédelon": {
        "53": 1
    },
    "géofoncier": {
        "422": 1
    },
    "habitat": {
        "462": 2
    },
    "habiter": {
        "37": 1
    },
    "haddock": {
        "205": 1
    },
    "hamilton": {
        "28": 1
    },
    "hari": {
        "300": 1
    },
    "haut": {
        "456": 1
    },
    "havaianas": {
        "474": 2
    },
    "hdr": {
        "333": 1
    },
    "helper": {
        "187": 1
    },
    "hemnes": {
        "346": 1
    },
    "hennessy": {
        "60": 2
    },
    "heritage": {
        "176": 1
    },
    "hernieinguinale.fr": {
        "282": 1
    },
    "hguitare": {
        "344": 2
    },
    "hifi": {
        "361": 1
    },
    "hifi-video.fr": {
        "361": 1
    },
    "higgs": {
        "97": 1
    },
    "high-tech": {
        "457": 1
    },
    "hill": {
        "325": 1
    },
    "histoire": {
        "139": 1,
        "451": 1
    },
    "holodomor": {
        "332": 1
    },
    "home": {
        "239": 1,
        "349": 1,
        "361": 1,
        "413": 1,
        "435": 1
    },
    "homepage": {
        "40": 1
    },
    "homme": {
        "391": 1
    },
    "horaires": {
        "360": 1,
        "458": 1
    },
    "horse": {
        "204": 1
    },
    "houellebecq,": {
        "250": 1
    },
    "hugo": {
        "485": 1
    },
    "humanisme": {
        "112": 1
    },
    "hédon,": {
        "185": 1
    },
    "hôtel": {
        "463": 1
    },
    "idaho": {
        "325": 1
    },
    "ide": {
        "441": 1
    },
    "ideas": {
        "435": 1
    },
    "ikea": {
        "48": 2,
        "119": 1,
        "253": 2,
        "301": 1,
        "346": 1,
        "435": 1
    },
    "ildys": {
        "55": 1
    },
    "ildys-": {
        "55": 1
    },
    "ile-de-france": {
        "298": 1
    },
    "illimités": {
        "264": 1
    },
    "imagerie": {
        "21": 1
    },
    "immanuel": {
        "392": 1
    },
    "immobilier": {
        "17": 1,
        "102": 1
    },
    "immobilière": {
        "17": 1
    },
    "immunité": {
        "362": 1
    },
    "imovie": {
        "157": 1
    },
    "impôt": {
        "189": 1,
        "242": 1
    },
    "in": {
        "132": 1,
        "292": 1,
        "407": 1,
        "497": 1
    },
    "inclus": {
        "33": 1
    },
    "indice": {
        "214": 1,
        "295": 1
    },
    "indiens…": {
        "37": 1
    },
    "indigo": {
        "39": 1
    },
    "info": {
        "473": 1
    },
    "informations": {
        "289": 1
    },
    "ini": {
        "300": 1
    },
    "inlove": {
        "372": 1
    },
    "inscription": {
        "143": 1,
        "447": 1
    },
    "installation": {
        "357": 1
    },
    "institut": {
        "35": 1,
        "38": 1,
        "309": 1
    },
    "institutions": {
        "240": 1
    },
    "inséparable": {
        "426": 1
    },
    "interessanti": {
        "34": 1
    },
    "international": {
        "76": 1
    },
    "internet": {
        "26": 1,
        "79": 1,
        "291": 1
    },
    "intm": {
        "51": 2
    },
    "investir": {
        "465": 1
    },
    "investissez": {
        "94": 1
    },
    "iphone": {
        "99": 1,
        "217": 1
    },
    "iptv": {
        "384": 1
    },
    "ireland": {
        "204": 1,
        "435": 1
    },
    "irl": {
        "295": 1
    },
    "is": {
        "475": 1
    },
    "iseut": {
        "131": 1
    },
    "iso": {
        "234": 1
    },
    "j'aime": {
        "209": 1
    },
    "jacques": {
        "438": 1
    },
    "janvier": {
        "289": 1
    },
    "jardin": {
        "198": 1,
        "382": 1
    },
    "jardinerie": {
        "407": 1
    },
    "jardinet": {
        "198": 1
    },
    "jaunes": {
        "327": 1
    },
    "je": {
        "326": 1
    },
    "jean-marie": {
        "405": 1
    },
    "jeunes": {
        "298": 1
    },
    "jff": {
        "444": 1
    },
    "joaillier": {
        "113": 1
    },
    "joan": {
        "255": 1
    },
    "joe": {
        "341": 2
    },
    "jour": {
        "211": 1
    },
    "journée,": {
        "58": 1
    },
    "jours": {
        "250": 1,
        "387": 2
    },
    "judiciaire": {
        "67": 1
    },
    "judiciaires": {
        "38": 1
    },
    "kabylie": {
        "257": 1
    },
    "kanye": {
        "476": 1
    },
    "karine": {
        "0": 1
    },
    "kl": {
        "167": 2
    },
    "kraft": {
        "129": 1
    },
    "l'abordage": {
        "466": 1
    },
    "l'actualité": {
        "32": 1
    },
    "l'aisne": {
        "209": 1
    },
    "l'assainissement": {
        "437": 1
    },
    "l'autocollant": {
        "494": 1
    },
    "l'autorité": {
        "342": 1
    },
    "l'eau": {
        "437": 1
    },
    "l'est": {
        "202": 1
    },
    "l'expert": {
        "391": 1
    },
    "l'hôpital": {
        "82": 1
    },
    "l'imagerie": {
        "21": 1
    },
    "l'indre-et-loire": {
        "416": 1
    },
    "l'insee": {
        "295": 1
    },
    "l'oeil": {
        "281": 1
    },
    "l'offre": {
        "291": 1
    },
    "l'ouest": {
        "202": 1
    },
    "l'univers": {
        "450": 1
    },
    "l'épidémie": {
        "289": 1
    },
    "la": {
        "33": 1,
        "41": 1,
        "74": 1,
        "79": 1,
        "80": 1,
        "82": 1,
        "112": 1,
        "135": 2,
        "139": 1,
        "211": 1,
        "221": 1,
        "234": 1,
        "241": 2,
        "264": 1,
        "272": 1,
        "297": 1,
        "338": 1,
        "344": 1,
        "363": 1,
        "365": 1,
        "376": 2,
        "379": 2,
        "403": 1,
        "407": 1,
        "414": 1,
        "423": 1,
        "426": 1,
        "428": 1,
        "446": 2,
        "456": 2,
        "458": 1,
        "472": 1,
        "485": 1
    },
    "laboratoire": {
        "63": 1
    },
    "laboratoires": {
        "482": 1
    },
    "lack": {
        "301": 1
    },
    "lacombe": {
        "0": 1
    },
    "lady": {
        "475": 1
    },
    "laines": {
        "477": 1
    },
    "lalique": {
        "5": 1
    },
    "lalouvesc": {
        "175": 1,
        "254": 1
    },
    "largo": {
        "457": 1
    },
    "latine": {
        "379": 1
    },
    "lave-vaisselle,": {
        "161": 1
    },
    "le": {
        "4": 1,
        "21": 1,
        "22": 1,
        "23": 1,
        "27": 1,
        "41": 1,
        "70": 1,
        "79": 1,
        "88": 1,
        "123": 1,
        "130": 1,
        "175": 1,
        "189": 1,
        "202": 1,
        "211": 1,
        "217": 1,
        "240": 1,
        "250": 1,
        "254": 1,
        "265": 1,
        "280": 1,
        "306": 1,
        "321": 2,
        "322": 1,
        "328": 1,
        "362": 2,
        "422": 1,
        "426": 1,
        "446": 1,
        "462": 1,
        "464": 1,
        "465": 1,
        "493": 1
    },
    "learn": {
        "106": 1
    },
    "leconte": {
        "31": 1
    },
    "lecture": {
        "36": 1
    },
    "lentes": {
        "273": 1
    },
    "les": {
        "36": 1,
        "37": 1,
        "43": 1,
        "82": 2,
        "90": 1,
        "124": 1,
        "151": 2,
        "166": 1,
        "225": 1,
        "239": 1,
        "240": 1,
        "263": 1,
        "291": 1,
        "344": 1,
        "403": 1,
        "413": 1,
        "445": 1,
        "455": 1,
        "458": 1,
        "473": 1,
        "482": 1,
        "487": 1,
        "491": 1
    },
    "lettres": {
        "382": 1,
        "494": 1
    },
    "levant": {
        "142": 1
    },
    "lever": {
        "142": 1
    },
    "libye,": {
        "152": 1
    },
    "libyenne": {
        "152": 1
    },
    "libère": {
        "494": 1
    },
    "lifecycle": {
        "106": 1
    },
    "lignac": {
        "151": 2
    },
    "ligne": {
        "94": 1,
        "242": 1,
        "293": 1,
        "344": 1,
        "415": 1,
        "423": 1,
        "445": 1,
        "447": 1,
        "465": 1
    },
    "ligne)": {
        "415": 1
    },
    "limoges": {
        "399": 1
    },
    "link": {
        "300": 1
    },
    "liqueurs": {
        "365": 1
    },
    "liste": {
        "77": 1
    },
    "listériose": {
        "283": 1
    },
    "lmnp": {
        "326": 1
    },
    "lmp": {
        "326": 1
    },
    "lobbying": {
        "309": 1
    },
    "localisez": {
        "321": 1
    },
    "locatif": {
        "102": 1
    },
    "location": {
        "10": 1
    },
    "locaux": {
        "4": 1
    },
    "locunolé": {
        "83": 1
    },
    "logement": {
        "462": 1
    },
    "logements": {
        "298": 1
    },
    "logiciel": {
        "234": 1
    },
    "lourde": {
        "82": 1
    },
    "lovers\"": {
        "292": 1
    },
    "loyers": {
        "214": 1,
        "295": 1
    },
    "luxemburg": {
        "420": 1
    },
    "lycee": {
        "420": 1
    },
    "lycée": {
        "81": 1,
        "168": 1,
        "472": 2
    },
    "lyf,": {
        "280": 1
    },
    "lynx": {
        "465": 1
    },
    "lyon": {
        "58": 1
    },
    "lâg": {
        "41": 1
    },
    "lève": {
        "202": 1
    },
    "légumes": {
        "4": 1
    },
    "l’e-mail": {
        "305": 1
    },
    "ma": {
        "127": 1,
        "473": 1
    },
    "macgyver": {
        "57": 1
    },
    "machine": {
        "26": 1
    },
    "made": {
        "226": 1
    },
    "mag'": {
        "362": 1
    },
    "magasin": {
        "48": 1,
        "71": 1,
        "321": 1
    },
    "magazine": {
        "74": 1
    },
    "mail": {
        "135": 1
    },
    "maine": {
        "372": 2
    },
    "mainecoon": {
        "372": 1
    },
    "maintenance": {
        "351": 1
    },
    "mairie": {
        "14": 1,
        "83": 1,
        "153": 1
    },
    "maison": {
        "408": 2,
        "428": 1,
        "456": 1
    },
    "maisons": {
        "413": 1
    },
    "majeur": {
        "297": 1
    },
    "malades": {
        "82": 1
    },
    "maladie": {
        "212": 1,
        "221": 1,
        "406": 1
    },
    "mamans": {
        "10": 1
    },
    "mamma": {
        "446": 1
    },
    "manager": {
        "497": 1
    },
    "manifestations": {
        "447": 1
    },
    "manières": {
        "273": 1
    },
    "manroulette:": {
        "91": 1
    },
    "manuels": {
        "161": 1
    },
    "manufacturers": {
        "92": 1
    },
    "maps": {
        "489": 1
    },
    "marceau": {
        "223": 1
    },
    "marchissy": {
        "372": 1
    },
    "mari": {
        "454": 1
    },
    "market": {
        "446": 1
    },
    "marque": {
        "41": 1,
        "71": 1
    },
    "martin-de-nigelles": {
        "153": 1
    },
    "mas": {
        "424": 1
    },
    "maternelle": {
        "417": 1
    },
    "matrix": {
        "50": 1
    },
    "maurienne": {
        "338": 1
    },
    "mazeau": {
        "17": 1
    },
    "md": {
        "392": 2
    },
    "mdcu": {
        "43": 1
    },
    "meet": {
        "286": 1
    },
    "meeting": {
        "404": 1
    },
    "meilleur": {
        "198": 1,
        "465": 1
    },
    "meilleure": {
        "272": 1
    },
    "meilleures": {
        "166": 1,
        "445": 1
    },
    "meilleurs": {
        "239": 1
    },
    "mendes-france": {
        "472": 1
    },
    "mer": {
        "463": 1
    },
    "message": {
        "442": 1
    },
    "messages": {
        "442": 1
    },
    "mettre": {
        "417": 1
    },
    "meuble": {
        "129": 1
    },
    "meubles": {
        "48": 1
    },
    "meublé": {
        "326": 1
    },
    "michel": {
        "281": 1
    },
    "michigan": {
        "436": 1
    },
    "microsoft": {
        "106": 2,
        "286": 1
    },
    "minecraft": {
        "464": 1
    },
    "ministres": {
        "314": 1
    },
    "ministères": {
        "124": 1
    },
    "mise": {
        "211": 1
    },
    "mjp": {
        "152": 1
    },
    "mobile": {
        "280": 1
    },
    "modalités": {
        "291": 1
    },
    "mode": {
        "71": 1,
        "477": 1
    },
    "moderne": {
        "469": 1
    },
    "modes": {
        "161": 1
    },
    "mon": {
        "326": 1
    },
    "monde": {
        "22": 1,
        "388": 1
    },
    "monde.fr": {
        "265": 1,
        "493": 1
    },
    "montauban": {
        "129": 1,
        "313": 1,
        "434": 1
    },
    "montine": {
        "120": 1
    },
    "montélimar": {
        "440": 1
    },
    "more": {
        "436": 1
    },
    "moteur": {
        "88": 1
    },
    "mots": {
        "88": 2
    },
    "mots:jeu": {
        "382": 1
    },
    "motte": {
        "363": 1
    },
    "moulus,": {
        "432": 1
    },
    "mouvements": {
        "378": 1
    },
    "movies": {
        "145": 1
    },
    "multi": {
        "90": 1
    },
    "multimédia": {
        "125": 1
    },
    "music": {
        "266": 1
    },
    "music-map": {
        "266": 1
    },
    "musée": {
        "5": 1,
        "469": 1
    },
    "musées": {
        "469": 1
    },
    "mètre": {
        "79": 1
    },
    "médicale": {
        "21": 2
    },
    "médicales": {
        "482": 1
    },
    "méo": {
        "432": 1
    },
    "méridien": {
        "466": 1
    },
    "mérieux": {
        "35": 1
    },
    "méthodes": {
        "150": 1
    },
    "métropole": {
        "101": 1
    },
    "nain": {
        "424": 1
    },
    "natalys": {
        "71": 1
    },
    "national": {
        "143": 1
    },
    "nature": {
        "10": 1
    },
    "naturels": {
        "10": 1
    },
    "netflix": {
        "248": 1
    },
    "neuilly-sur-seine": {
        "444": 1
    },
    "neurologie": {
        "378": 1
    },
    "neuve/occasion": {
        "488": 1
    },
    "newest": {
        "286": 1
    },
    "news,": {
        "43": 1,
        "436": 1
    },
    "noir": {
        "2": 1
    },
    "nom": {
        "454": 2
    },
    "nombre": {
        "387": 1
    },
    "none": {
        "47": 1
    },
    "nordictrack": {
        "456": 1
    },
    "normandie": {
        "444": 1
    },
    "north": {
        "304": 1
    },
    "nos": {
        "403": 1
    },
    "notices": {
        "161": 1
    },
    "notre": {
        "272": 1
    },
    "nougat": {
        "440": 1
    },
    "nougatier": {
        "440": 1
    },
    "nouveau": {
        "250": 1,
        "415": 1
    },
    "noël": {
        "128": 1
    },
    "nuances": {
        "468": 1
    },
    "nuisances": {
        "8": 1
    },
    "nuit": {
        "3": 1
    },
    "numerique": {
        "270": 1
    },
    "numero": {
        "478": 1
    },
    "nuovi": {
        "34": 1
    },
    "nvidia": {
        "323": 1
    },
    "n°1": {
        "423": 1
    },
    "néocom": {
        "125": 1
    },
    "observatoire": {
        "107": 1
    },
    "occasion": {
        "95": 1
    },
    "occitanie": {
        "129": 1
    },
    "octobre": {
        "314": 1
    },
    "of": {
        "341": 1
    },
    "official": {
        "226": 1,
        "341": 1,
        "349": 1
    },
    "officiel": {
        "2": 1,
        "41": 1,
        "101": 1,
        "183": 1,
        "428": 1
    },
    "olfactives": {
        "8": 1
    },
    "on": {
        "292": 1
    },
    "ondes": {
        "403": 1
    },
    "online": {
        "187": 1,
        "345": 1
    },
    "online,": {
        "226": 1
    },
    "opel": {
        "488": 2
    },
    "opérateur": {
        "437": 1
    },
    "orange": {
        "291": 1
    },
    "ordinateur": {
        "150": 1
    },
    "oregon": {
        "325": 1
    },
    "oscars)": {
        "475": 1
    },
    "ou": {
        "37": 1,
        "158": 1,
        "202": 1,
        "415": 1,
        "454": 1
    },
    "oublié": {
        "217": 1
    },
    "ouest": {
        "173": 1
    },
    "oukitel丨portable": {
        "294": 1
    },
    "oursons": {
        "151": 2
    },
    "outlook": {
        "386": 1
    },
    "ouvrés": {
        "387": 2
    },
    "où": {
        "202": 2
    },
    "page": {
        "29": 1,
        "176": 1
    },
    "pages": {
        "327": 1
    },
    "paiement": {
        "280": 1
    },
    "paiements|": {
        "232": 1
    },
    "panda": {
        "296": 1
    },
    "panneaux": {
        "487": 1
    },
    "par": {
        "234": 1
    },
    "parabol": {
        "404": 1
    },
    "parc": {
        "123": 2
    },
    "parce": {
        "426": 1
    },
    "parcelle": {
        "422": 1
    },
    "parentale": {
        "342": 1
    },
    "paris": {
        "107": 1,
        "167": 1,
        "253": 1,
        "287": 1,
        "328": 1,
        "497": 1
    },
    "park": {
        "304": 1
    },
    "parrainage": {
        "192": 1
    },
    "partez": {
        "37": 1
    },
    "parti": {
        "237": 1
    },
    "particuliers": {
        "95": 1
    },
    "pas": {
        "466": 1
    },
    "passe": {
        "264": 1
    },
    "pate": {
        "87": 2
    },
    "patricia": {
        "275": 1
    },
    "paul": {
        "183": 2
    },
    "paysannes": {
        "477": 1
    },
    "pcr": {
        "371": 1
    },
    "pelt": {
        "405": 1
    },
    "perche": {
        "413": 1
    },
    "permanente": {
        "211": 1
    },
    "permis": {
        "415": 1
    },
    "personnalité": {
        "414": 1
    },
    "personnel": {
        "77": 1
    },
    "perspectives": {
        "37": 1
    },
    "perte,": {
        "415": 1
    },
    "petites": {
        "95": 1
    },
    "philippe": {
        "31": 1
    },
    "philosophie": {
        "139": 1
    },
    "phone、smartphone": {
        "294": 1
    },
    "photovoltaïques": {
        "487": 1
    },
    "picasa": {
        "235": 1
    },
    "pie": {
        "379": 1
    },
    "pierre": {
        "472": 1
    },
    "pioneering": {
        "35": 1
    },
    "pirates": {
        "250": 1,
        "461": 1
    },
    "placement": {
        "67": 1
    },
    "planner": {
        "351": 1
    },
    "planolet": {
        "130": 1
    },
    "plateforme": {
        "102": 1
    },
    "play": {
        "382": 1
    },
    "plus": {
        "321": 1,
        "468": 1
    },
    "plus)": {
        "158": 1
    },
    "pneumothorax": {
        "122": 3
    },
    "poireaux": {
        "241": 2
    },
    "poképédia": {
        "381": 1
    },
    "polemos,": {
        "426": 1
    },
    "politiques": {
        "80": 1
    },
    "polémia": {
        "426": 1
    },
    "pommade": {
        "263": 1
    },
    "pompe": {
        "357": 1
    },
    "ponant,": {
        "437": 1
    },
    "poney": {
        "313": 1
    },
    "pontault-combault": {
        "14": 1
    },
    "portable,": {
        "161": 1
    },
    "portal": {
        "270": 1
    },
    "porte": {
        "379": 1
    },
    "portfolio": {
        "209": 1
    },
    "porto-novo": {
        "320": 1
    },
    "portée": {
        "450": 1
    },
    "potron-minet": {
        "268": 1
    },
    "pour": {
        "10": 1,
        "36": 1,
        "82": 1,
        "99": 1,
        "150": 1,
        "161": 1,
        "163": 1,
        "291": 1,
        "362": 1,
        "455": 1,
        "474": 1
    },
    "poux": {
        "273": 1
    },
    "power": {
        "294": 1
    },
    "prestre": {
        "322": 1
    },
    "primaire": {
        "406": 1
    },
    "prime": {
        "376": 1,
        "409": 1
    },
    "principales": {
        "365": 1
    },
    "privé": {
        "168": 1
    },
    "privée": {
        "336": 1
    },
    "prix": {
        "198": 1
    },
    "problèmes": {
        "36": 1
    },
    "proche": {
        "321": 1
    },
    "prod": {
        "29": 1
    },
    "production": {
        "365": 1
    },
    "produits": {
        "4": 1,
        "10": 1
    },
    "professionnels": {
        "455": 1
    },
    "profils": {
        "31": 1
    },
    "profitez": {
        "33": 1
    },
    "programme": {
        "74": 1
    },
    "promo": {
        "337": 1,
        "453": 1
    },
    "properties": {
        "413": 1
    },
    "propriétaire": {
        "422": 1
    },
    "protections": {
        "99": 1
    },
    "provençale": {
        "120": 1
    },
    "proverbes": {
        "166": 1
    },
    "près": {
        "313": 1
    },
    "préalable": {
        "368": 1
    },
    "psl": {
        "107": 1
    },
    "pub": {
        "494": 2
    },
    "publique": {
        "221": 1
    },
    "puzzle": {
        "345": 1
    },
    "puériculture": {
        "71": 1
    },
    "pvc,": {
        "423": 1
    },
    "pâques": {
        "128": 1
    },
    "pâtisserie": {
        "167": 2,
        "444": 1
    },
    "qrm": {
        "101": 1
    },
    "qu'est-ce": {
        "189": 1
    },
    "qu'un": {
        "189": 1
    },
    "qualios": {
        "234": 1
    },
    "qualité": {
        "234": 1
    },
    "quartier": {
        "79": 1,
        "466": 1
    },
    "que": {
        "426": 1
    },
    "quelle": {
        "272": 1,
        "478": 1
    },
    "quels": {
        "239": 1
    },
    "quevilly": {
        "101": 1
    },
    "quid": {
        "148": 1
    },
    "quinze": {
        "250": 1
    },
    "racing": {
        "204": 1
    },
    "radio": {
        "466": 1
    },
    "randonneurs": {
        "90": 1
    },
    "rasage": {
        "391": 1
    },
    "rasoir,": {
        "391": 1
    },
    "raynaud\"": {
        "38": 1
    },
    "realms": {
        "216": 1
    },
    "rebrousse-poil": {
        "477": 1
    },
    "recette": {
        "87": 1,
        "241": 1,
        "367": 1,
        "408": 1
    },
    "recherche": {
        "88": 1,
        "107": 1
    },
    "reconditionnés": {
        "457": 1
    },
    "reconnaissance": {
        "368": 1
    },
    "refus": {
        "143": 1
    },
    "regarder": {
        "248": 1
    },
    "registre": {
        "143": 1
    },
    "remote": {
        "404": 1
    },
    "renaissance": {
        "112": 1
    },
    "renault": {
        "366": 1
    },
    "rendu": {
        "314": 1
    },
    "renouvellement": {
        "297": 1
    },
    "results": {
        "204": 1
    },
    "retraite": {
        "473": 1
    },
    "revenu": {
        "189": 1
    },
    "ricotta": {
        "334": 1
    },
    "rihanna": {
        "177": 1
    },
    "rilevamento": {
        "34": 1
    },
    "roche": {
        "472": 1
    },
    "romantiques": {
        "290": 1
    },
    "rosa": {
        "420": 1
    },
    "rouen": {
        "101": 1,
        "406": 1
    },
    "rouen-elbeuf-dieppe-seine-maritime": {
        "406": 1
    },
    "roulette": {
        "91": 1
    },
    "route": {
        "264": 1
    },
    "routier": {
        "338": 2
    },
    "rue": {
        "328": 1
    },
    "rumors": {
        "436": 1
    },
    "rungkad": {
        "300": 1
    },
    "ré-inventé": {
        "305": 1
    },
    "réflexion": {
        "281": 1
    },
    "référence": {
        "209": 1,
        "214": 1,
        "295": 1,
        "456": 1
    },
    "régionales": {
        "211": 1
    },
    "régler": {
        "36": 1
    },
    "réinformation": {
        "281": 1
    },
    "rémy": {
        "365": 2
    },
    "réponse": {
        "191": 1
    },
    "république": {
        "455": 1
    },
    "réservations": {
        "458": 1
    },
    "résilier": {
        "291": 1
    },
    "résistance": {
        "139": 1
    },
    "résultats": {
        "32": 1,
        "38": 1
    },
    "réversible": {
        "357": 1
    },
    "révillon": {
        "128": 1
    },
    "révolution": {
        "33": 1
    },
    "sa": {
        "250": 1,
        "454": 1
    },
    "saindoux": {
        "389": 1
    },
    "saint": {
        "168": 1,
        "379": 1,
        "485": 1
    },
    "saint-lary": {
        "170": 1
    },
    "saint-martin": {
        "328": 1
    },
    "saint-nazaire": {
        "17": 1
    },
    "saint-pierre": {
        "130": 1
    },
    "saint-pierre-des-corps": {
        "416": 1
    },
    "salarié": {
        "173": 1
    },
    "sales": {
        "168": 1
    },
    "salle": {
        "253": 1
    },
    "sans": {
        "403": 1
    },
    "santé": {
        "23": 1
    },
    "santé,": {
        "281": 1
    },
    "satellite": {
        "161": 1
    },
    "saumur": {
        "2": 1
    },
    "sauter": {
        "231": 1
    },
    "sauvons": {
        "403": 1
    },
    "savage": {
        "177": 1
    },
    "savoir": {
        "487": 1
    },
    "scores,": {
        "436": 1
    },
    "se": {
        "202": 2,
        "273": 1
    },
    "secede": {
        "325": 1
    },
    "seigneur": {
        "27": 1
    },
    "seine-maritime": {
        "406": 1
    },
    "selection": {
        "366": 1
    },
    "selûne": {
        "216": 1
    },
    "semaine": {
        "458": 1,
        "478": 1
    },
    "semaine.fr": {
        "478": 1
    },
    "sendao": {
        "191": 1
    },
    "service": {
        "497": 1
    },
    "service-public.fr": {
        "8": 1,
        "67": 1,
        "76": 1,
        "143": 1,
        "158": 1,
        "189": 1,
        "199": 1,
        "214": 1,
        "221": 1,
        "297": 1,
        "342": 1,
        "368": 1,
        "406": 1,
        "409": 1,
        "415": 1,
        "417": 1,
        "454": 1
    },
    "services": {
        "434": 1,
        "473": 1,
        "497": 1
    },
    "services75ans.agirc-arrco.fr": {
        "284": 1
    },
    "ses": {
        "365": 1
    },
    "sftrf": {
        "338": 1
    },
    "shallow": {
        "475": 1
    },
    "sherlock": {
        "164": 1
    },
    "shopify": {
        "230": 1
    },
    "si": {
        "217": 1
    },
    "sign": {
        "132": 1
    },
    "signe": {
        "414": 1
    },
    "signes": {
        "414": 1
    },
    "similar": {
        "266": 1
    },
    "simulateur": {
        "242": 1
    },
    "simulation": {
        "242": 1
    },
    "site": {
        "2": 1,
        "21": 1,
        "23": 1,
        "41": 1,
        "101": 1,
        "183": 1,
        "428": 1,
        "497": 1
    },
    "site:": {
        "226": 1
    },
    "siège": {
        "406": 1
    },
    "ski": {
        "58": 1,
        "130": 1,
        "350": 1
    },
    "ski,": {
        "396": 1
    },
    "skimania": {
        "58": 1
    },
    "sky": {
        "219": 1
    },
    "slider": {
        "413": 1
    },
    "slot": {
        "300": 1
    },
    "slot88:": {
        "300": 1
    },
    "smiley,": {
        "15": 1
    },
    "snowboard": {
        "396": 1
    },
    "social": {
        "462": 1
    },
    "sociale,": {
        "135": 1
    },
    "sociales": {
        "80": 1
    },
    "sodium": {
        "358": 1
    },
    "software": {
        "441": 1
    },
    "soin": {
        "391": 1
    },
    "soir": {
        "74": 2
    },
    "soleil": {
        "142": 4
    },
    "soleil:": {
        "202": 1
    },
    "solutions": {
        "23": 1,
        "190": 1
    },
    "solver": {
        "187": 1
    },
    "sombres": {
        "468": 1
    },
    "son": {
        "454": 1
    },
    "sont": {
        "239": 1,
        "365": 1
    },
    "sophie": {
        "223": 1
    },
    "soprano": {
        "194": 1
    },
    "sortie": {
        "250": 1
    },
    "sorties": {
        "58": 1,
        "458": 1
    },
    "soutien": {
        "442": 1
    },
    "spiritueux.": {
        "365": 1
    },
    "splendid": {
        "328": 1
    },
    "sport": {
        "32": 1,
        "204": 1,
        "456": 1
    },
    "sportive": {
        "32": 1
    },
    "sportives": {
        "447": 1
    },
    "sports": {
        "90": 1
    },
    "spécialiste": {
        "79": 1,
        "129": 1
    },
    "st": {
        "153": 1
    },
    "star": {
        "450": 2,
        "475": 1
    },
    "stargate": {
        "9": 1
    },
    "stars": {
        "388": 1
    },
    "statine": {
        "108": 1
    },
    "station": {
        "130": 1
    },
    "station、rugged": {
        "294": 1
    },
    "stats,": {
        "436": 1
    },
    "status": {
        "497": 1
    },
    "stella": {
        "392": 2
    },
    "stop": {
        "494": 2
    },
    "strasbourg": {
        "469": 1
    },
    "strategic": {
        "11": 1
    },
    "studio": {
        "129": 1
    },
    "studio:": {
        "441": 1
    },
    "sucrée": {
        "87": 2
    },
    "suivi": {
        "229": 1,
        "232": 1
    },
    "sul": {
        "34": 1
    },
    "summoners": {
        "219": 1
    },
    "suppliers": {
        "92": 1
    },
    "supérieur": {
        "309": 1
    },
    "sur": {
        "21": 1,
        "36": 1,
        "43": 1,
        "67": 1,
        "79": 1,
        "150": 1,
        "189": 1,
        "237": 1,
        "248": 1,
        "289": 1,
        "368": 1,
        "382": 1,
        "410": 1,
        "472": 1,
        "487": 1
    },
    "surrénalienne": {
        "212": 1
    },
    "suspension": {
        "304": 1
    },
    "sydom": {
        "98": 1
    },
    "sylvain": {
        "225": 1
    },
    "sylvette": {
        "225": 1
    },
    "symboles:": {
        "15": 1
    },
    "sébastien": {
        "322": 1
    },
    "sécheresses": {
        "263": 1
    },
    "sécurité": {
        "135": 1
    },
    "séjours": {
        "58": 1
    },
    "série": {
        "301": 1,
        "346": 1
    },
    "sérotonine": {
        "59": 1
    },
    "ta": {
        "494": 1
    },
    "tax": {
        "226": 1
    },
    "taxes": {
        "226": 1
    },
    "taxonomie": {
        "228": 1
    },
    "tcl": {
        "293": 1
    },
    "team": {
        "446": 1
    },
    "teams": {
        "404": 1,
        "441": 1
    },
    "technique": {
        "272": 1
    },
    "technologique": {
        "472": 1
    },
    "technopole": {
        "227": 1
    },
    "temps": {
        "306": 1
    },
    "tenerife": {
        "312": 1
    },
    "terbaru": {
        "300": 1
    },
    "terre": {
        "410": 1
    },
    "territoires": {
        "403": 1
    },
    "test": {
        "445": 1
    },
    "tests": {
        "264": 1
    },
    "teuf": {
        "446": 1
    },
    "thaïlande": {
        "289": 1
    },
    "the": {
        "159": 1,
        "286": 1,
        "325": 1,
        "341": 1,
        "349": 1,
        "475": 1
    },
    "thiers": {
        "418": 1
    },
    "things": {
        "349": 1
    },
    "thorens": {
        "396": 1
    },
    "théâtre": {
        "328": 1
    },
    "tigre": {
        "73": 1
    },
    "tire-lait": {
        "10": 1
    },
    "tissus": {
        "79": 2
    },
    "to": {
        "230": 1,
        "325": 2,
        "392": 1
    },
    "ton": {
        "264": 1
    },
    "tongs": {
        "474": 1
    },
    "tool": {
        "404": 1
    },
    "toolkit": {
        "323": 1
    },
    "totoro": {
        "52": 1
    },
    "toulouse": {
        "84": 1,
        "129": 1,
        "313": 1,
        "383": 2
    },
    "tourisme": {
        "170": 1
    },
    "tournefeuille": {
        "84": 1
    },
    "tournée": {
        "175": 1,
        "254": 1
    },
    "tout": {
        "43": 1,
        "229": 1,
        "487": 1
    },
    "toute": {
        "32": 1
    },
    "town": {
        "407": 1
    },
    "tradition": {
        "379": 1
    },
    "traduction": {
        "122": 1,
        "393": 1
    },
    "trainer": {
        "239": 1
    },
    "trains": {
        "360": 1
    },
    "traiter": {
        "70": 1
    },
    "translator": {
        "269": 1
    },
    "travail": {
        "287": 1
    },
    "travailleurs": {
        "298": 1
    },
    "trident": {
        "464": 1
    },
    "trio": {
        "362": 1
    },
    "tristan": {
        "131": 1
    },
    "troll": {
        "174": 1
    },
    "tropics": {
        "281": 1
    },
    "troubles": {
        "8": 1
    },
    "tunnel": {
        "338": 2
    },
    "turbotax®": {
        "226": 1
    },
    "tuto": {
        "150": 1
    },
    "tv": {
        "33": 1,
        "74": 3
    },
    "twitter": {
        "15": 1
    },
    "télé": {
        "74": 1
    },
    "télécharger": {
        "235": 1,
        "269": 1,
        "386": 1,
        "479": 1
    },
    "téléphone": {
        "135": 1,
        "161": 1
    },
    "téléphones": {
        "457": 1
    },
    "télévision": {
        "248": 1
    },
    "télévisée)": {
        "164": 1
    },
    "uk": {
        "204": 1
    },
    "un": {
        "90": 1,
        "229": 1,
        "290": 1,
        "365": 1,
        "410": 1
    },
    "une": {
        "150": 1,
        "290": 1,
        "477": 1
    },
    "universe": {
        "450": 1
    },
    "unlimited": {
        "341": 1
    },
    "urbaine": {
        "407": 1
    },
    "utilisation": {
        "454": 1
    },
    "utilitaires": {
        "366": 1
    },
    "utopia": {
        "84": 1
    },
    "vaginales": {
        "263": 1
    },
    "val": {
        "396": 1
    },
    "vancouver,": {
        "304": 1
    },
    "vasarely": {
        "471": 1
    },
    "vauban": {
        "322": 1
    },
    "vedettes": {
        "195": 1
    },
    "vente": {
        "79": 1,
        "336": 1,
        "423": 1
    },
    "ventilation": {
        "231": 1
    },
    "verbe": {
        "45": 1,
        "156": 1
    },
    "version": {
        "286": 1
    },
    "vertbaudet": {
        "321": 1
    },
    "vf,": {
        "43": 1
    },
    "victor": {
        "471": 1,
        "485": 1
    },
    "video": {
        "163": 1
    },
    "videos": {
        "292": 1
    },
    "vidéo": {
        "36": 1,
        "468": 1
    },
    "vidéos": {
        "223": 1
    },
    "vie": {
        "426": 1
    },
    "vimeo": {
        "292": 1
    },
    "vin": {
        "336": 2,
        "408": 2
    },
    "vins": {
        "120": 1
    },
    "vintage": {
        "176": 1
    },
    "virus": {
        "70": 1
    },
    "visual": {
        "441": 1
    },
    "vitamines": {
        "362": 1
    },
    "vivre": {
        "306": 1
    },
    "vo,": {
        "43": 1
    },
    "vocabulaire": {
        "205": 1
    },
    "voir": {
        "473": 1
    },
    "voisinage": {
        "8": 1
    },
    "voiture": {
        "488": 1
    },
    "voitures": {
        "366": 1
    },
    "vol,": {
        "415": 1
    },
    "volontariat": {
        "76": 1
    },
    "vote": {
        "325": 1
    },
    "votre": {
        "150": 1,
        "198": 1,
        "217": 1,
        "248": 1,
        "362": 1,
        "450": 1
    },
    "vous": {
        "217": 1,
        "321": 1
    },
    "voyages": {
        "30": 1
    },
    "vélizy": {
        "253": 1
    },
    "vêtement": {
        "71": 1
    },
    "vêtements": {
        "321": 1
    },
    "völkl": {
        "350": 1
    },
    "war:": {
        "219": 1
    },
    "wars": {
        "450": 2
    },
    "wayback": {
        "26": 1
    },
    "web": {
        "34": 1
    },
    "webcams": {
        "91": 1,
        "170": 1
    },
    "website": {
        "341": 1
    },
    "week": {
        "237": 1
    },
    "weekends": {
        "58": 1
    },
    "welcome": {
        "230": 1,
        "392": 1
    },
    "west": {
        "476": 1
    },
    "wiki": {
        "216": 1,
        "218": 1,
        "225": 1,
        "277": 1,
        "464": 1
    },
    "wikipédia": {
        "0": 1,
        "3": 1,
        "9": 1,
        "22": 1,
        "27": 1,
        "28": 1,
        "39": 1,
        "44": 1,
        "52": 1,
        "53": 1,
        "56": 1,
        "57": 1,
        "59": 1,
        "73": 1,
        "97": 1,
        "105": 1,
        "108": 1,
        "112": 1,
        "131": 1,
        "134": 1,
        "141": 1,
        "147": 1,
        "148": 1,
        "149": 1,
        "164": 1,
        "174": 1,
        "178": 1,
        "194": 1,
        "205": 1,
        "213": 1,
        "228": 1,
        "255": 1,
        "257": 1,
        "267": 1,
        "275": 1,
        "283": 1,
        "296": 1,
        "302": 1,
        "312": 1,
        "320": 1,
        "322": 1,
        "324": 1,
        "327": 1,
        "332": 1,
        "333": 1,
        "334": 1,
        "337": 1,
        "340": 1,
        "347": 1,
        "358": 1,
        "371": 1,
        "377": 1,
        "389": 1,
        "399": 1,
        "405": 1,
        "412": 1,
        "418": 1,
        "438": 1,
        "461": 1,
        "470": 1,
        "471": 1,
        "476": 1,
        "481": 1,
        "489": 1,
        "491": 1,
        "498": 1,
        "499": 1
    },
    "wiktionnaire": {
        "268": 1
    },
    "wilmaa": {
        "316": 1
    },
    "windows": {
        "36": 1,
        "106": 1,
        "286": 2,
        "479": 1
    },
    "witcher": {
        "277": 1
    },
    "with": {
        "91": 1,
        "187": 1,
        "341": 1
    },
    "wolverines": {
        "436": 2
    },
    "woman": {
        "159": 1
    },
    "wordreference": {
        "269": 1
    },
    "words": {
        "187": 1
    },
    "x": {
        "177": 1,
        "379": 1
    },
    "yon": {
        "472": 1
    },
    "youtube": {
        "116": 1,
        "475": 1
    },
    "zinc,": {
        "362": 1
    },
    "zodiaque": {
        "414": 1
    },
    "zones": {
        "403": 1
    },
    "zucchero": {
        "56": 1
    },
    "zéro": {
        "466": 1
    },
    "|": {
        "8": 1,
        "14": 1,
        "17": 1,
        "21": 1,
        "31": 1,
        "35": 1,
        "36": 1,
        "38": 1,
        "43": 1,
        "60": 1,
        "63": 1,
        "67": 1,
        "71": 2,
        "76": 1,
        "80": 1,
        "82": 1,
        "94": 1,
        "102": 1,
        "106": 1,
        "124": 1,
        "129": 2,
        "142": 1,
        "143": 1,
        "145": 1,
        "158": 1,
        "167": 1,
        "170": 1,
        "185": 1,
        "189": 1,
        "191": 1,
        "199": 1,
        "212": 1,
        "214": 1,
        "216": 2,
        "218": 1,
        "221": 1,
        "225": 2,
        "229": 1,
        "240": 2,
        "242": 1,
        "277": 1,
        "284": 1,
        "286": 1,
        "293": 1,
        "297": 1,
        "304": 1,
        "309": 1,
        "314": 1,
        "323": 1,
        "325": 1,
        "326": 1,
        "336": 2,
        "342": 1,
        "349": 1,
        "360": 1,
        "368": 1,
        "372": 2,
        "376": 1,
        "378": 1,
        "384": 1,
        "391": 1,
        "398": 1,
        "404": 1,
        "406": 1,
        "409": 1,
        "415": 1,
        "416": 1,
        "417": 1,
        "426": 1,
        "436": 1,
        "440": 1,
        "454": 1,
        "455": 1,
        "456": 1,
        "457": 1,
        "465": 1,
        "472": 1,
        "474": 1,
        "478": 1
    },
    "|tucoenergie": {
        "487": 1
    },
    "à": {
        "4": 1,
        "74": 1,
        "82": 1,
        "87": 2,
        "175": 1,
        "189": 1,
        "202": 2,
        "211": 1,
        "241": 2,
        "254": 1,
        "313": 1,
        "357": 1,
        "376": 1,
        "440": 1,
        "444": 1,
        "450": 1,
        "456": 1,
        "477": 1,
        "488": 1
    },
    "é-bat": {
        "364": 1
    },
    "élections.": {
        "211": 1
    },
    "électromagnétiques": {
        "403": 1
    },
    "électronique": {
        "191": 1
    },
    "élevage": {
        "372": 1
    },
    "éligibles,": {
        "77": 1
    },
    "émoticônes": {
        "15": 1
    },
    "énergie": {
        "409": 1
    },
    "énergies-renouvelables,": {
        "307": 1
    },
    "équipez": {
        "198": 1
    },
    "és": {
        "232": 1
    },
    "étapes": {
        "70": 1
    },
    "étudiants": {
        "298": 1
    },
    "évolutive": {
        "63": 1
    },
    "îlots": {
        "119": 1
    },
    "–": {
        "4": 1,
        "37": 1,
        "90": 1,
        "163": 1,
        "175": 1,
        "254": 1,
        "281": 2,
        "341": 1,
        "365": 1,
        "382": 1,
        "392": 1,
        "403": 1,
        "446": 1,
        "464": 1,
        "466": 1,
        "494": 1
    },
    "—": {
        "0": 1,
        "3": 1,
        "9": 1,
        "22": 1,
        "27": 1,
        "28": 1,
        "39": 1,
        "44": 1,
        "52": 1,
        "53": 1,
        "56": 1,
        "57": 1,
        "59": 1,
        "73": 1,
        "97": 1,
        "105": 1,
        "108": 1,
        "112": 1,
        "120": 2,
        "131": 1,
        "134": 1,
        "141": 1,
        "147": 1,
        "148": 1,
        "149": 1,
        "164": 1,
        "174": 1,
        "178": 1,
        "194": 1,
        "205": 1,
        "213": 1,
        "228": 1,
        "255": 1,
        "257": 1,
        "267": 1,
        "268": 1,
        "275": 1,
        "283": 1,
        "296": 1,
        "302": 1,
        "312": 1,
        "320": 1,
        "322": 1,
        "324": 1,
        "327": 1,
        "332": 1,
        "333": 1,
        "334": 1,
        "337": 1,
        "340": 1,
        "347": 1,
        "358": 1,
        "371": 1,
        "377": 1,
        "381": 1,
        "389": 1,
        "399": 1,
        "405": 1,
        "412": 1,
        "418": 1,
        "438": 1,
        "461": 1,
        "470": 1,
        "471": 1,
        "476": 1,
        "481": 1,
        "489": 1,
        "491": 1,
        "498": 1,
        "499": 1
    },
    "•": {
        "379": 2,
        "450": 1
    },
    "🥇": {
        "445": 1
    },
    "🦊": {
        "163": 1
    }
}